<?xml version="1.0" encoding="utf-8"?>
<!-- Generator: Adobe Illustrator 25.3.1, SVG Export Plug-In . SVG Version: 6.00 Build 0)  -->
<svg version="1.1" id="Layer_1" xmlns="http://www.w3.org/2000/svg" xmlns:xlink="http://www.w3.org/1999/xlink" x="0px" y="0px"
	 viewBox="0 0 86 78" style="enable-background:new 0 0 86 78;" xml:space="preserve">
<style type="text/css">
	.st0{fill:none;stroke:#78DEA2;stroke-width:3;stroke-miterlimit:10;}
</style>
<g>
	<line class="st0" x1="7.6" y1="58" x2="1.6" y2="67.7"/>
	<line class="st0" x1="25.8" y1="59.6" x2="28.2" y2="71.4"/>
	<line class="st0" x1="53.2" y1="56.8" x2="59.6" y2="65.3"/>
	<line class="st0" x1="75.4" y1="57.1" x2="84.4" y2="63.7"/>
	<line class="st0" x1="65.1" y1="20.4" x2="70.5" y2="10.6"/>
	<line class="st0" x1="44.2" y1="20.4" x2="49.4" y2="5.4"/>
	<line class="st0" x1="16.8" y1="19.8" x2="7.4" y2="12.5"/>
</g>
</svg>
