<?xml version="1.0" encoding="utf-8"?>
<!-- Generator: Adobe Illustrator 25.3.1, SVG Export Plug-In . SVG Version: 6.00 Build 0)  -->
<svg version="1.1" xmlns="http://www.w3.org/2000/svg" xmlns:xlink="http://www.w3.org/1999/xlink" x="0px" y="0px"
	 width="82px" viewBox="0 0 82 32" style="enable-background:new 0 0 82 32;" xml:space="preserve">
<style type="text/css">
	.st0{fill:none;stroke:#78DEA2;stroke-width:3;stroke-linejoin:round;stroke-miterlimit:10;}
</style>
<path class="st0" d="M81.1,10.2c-19.7-2.6-63.2,0.1-63.2,0.1L25,21C22.7,19.1,2.2,10.6,2.2,10.6C9.5,4.6,26,2.5,26,2.5
	c-3.3,2.2-7.6,7.2-8.1,7.7"/>
</svg>
