<?xml version="1.0" encoding="utf-8"?>
<!-- Generator: Adobe Illustrator 25.3.1, SVG Export Plug-In . SVG Version: 6.00 Build 0)  -->
<svg version="1.1" xmlns="http://www.w3.org/2000/svg" xmlns:xlink="http://www.w3.org/1999/xlink" x="0px" y="0px"
	 width="136px" viewBox="0 0 136 52" style="enable-background:new 0 0 136 52;" xml:space="preserve">
<style type="text/css">
	.st0{fill:none;stroke:#78DEA2;stroke-width:3;stroke-miterlimit:10;}
</style>
<path class="st0" d="M0.7,50.4c0,0,99.2-7.1,134.7-3.4"/>
</svg>
