<?xml version="1.0" encoding="utf-8"?>
<!-- Generator: Adobe Illustrator 25.3.1, SVG Export Plug-In . SVG Version: 6.00 Build 0)  -->
<svg version="1.1" id="Layer_1" xmlns="http://www.w3.org/2000/svg" xmlns:xlink="http://www.w3.org/1999/xlink" x="0px" y="0px"
	 width="58px" viewBox="0 0 58 56" style="enable-background:new 0 0 58 56;" xml:space="preserve">
<style type="text/css">
	.st0{fill:none;stroke:#78DEA2;stroke-width:3;stroke-miterlimit:10;}
</style>
<g>
	<path class="st0" d="M19.7,28.6c0,0,4.2,4.4,8.2,9.1c1.5,1.7,8.5-8.7,8.5-8.7"/>
	<path class="st0" d="M28.2,17.4c0,0-1,5.9,0,19.7"/>
	<path class="st0" d="M27.4,2.3c10.7,0.2,20.2,7,23.9,11.3c10.4,11.6-0.3,29.5-7.1,35.7c-7.7,7.1-42,8.8-42-16.2S19.3,3.5,19.3,3.5
		C22,2.6,24.8,2.2,27.4,2.3z"/>
</g>
</svg>
