<?xml version="1.0" encoding="utf-8"?>
<!-- Generator: Adobe Illustrator 25.3.1, SVG Export Plug-In . SVG Version: 6.00 Build 0)  -->
<svg version="1.1" id="Layer_1" xmlns="http://www.w3.org/2000/svg" xmlns:xlink="http://www.w3.org/1999/xlink" x="0px" y="0px"
	 viewBox="0 0 64 64" style="enable-background:new 0 0 64 64;" xml:space="preserve">
<style type="text/css">
	.st0{fill:#78DEA2;}
</style>
<path class="st0" d="M64,41.6l-7.7-9.8l7.5-10l-12.3-3.6L51.5,5.9l-12.2,4L31.6,0l-7.4,10L12,6.3l0.2,12.2L0,22.4l7.7,9.8l-7.5,10
	l12.3,3.6l0.1,12.2l12.2-4l7.7,9.8l7.4-10L52,57.7l-0.2-12.2L64,41.6z M38.4,51C28,54.5,16.6,48.8,13.1,38.4
	C9.5,27.9,15.1,16.5,25.6,13C36.1,9.5,47.4,15.2,51,25.6C54.4,36.1,48.8,47.5,38.4,51z"/>
<g>
	<path class="st0" d="M22.8,41.4l2.2-2.1c2.5,2.6,6.5,3.6,10,2.5c3.4-1.2,6-4.3,6.4-8l2.9,0.3c-0.5,4.8-3.8,8.9-8.4,10.5
		c-1.3,0.5-2.5,0.7-3.9,0.7C28.6,45.2,25.3,43.8,22.8,41.4z"/>
	<ellipse transform="matrix(0.9475 -0.3198 0.3198 0.9475 -5.6801 12.5487)" class="st0" cx="35.4" cy="23.6" rx="1.9" ry="5.5"/>
	<ellipse transform="matrix(0.9475 -0.3198 0.3198 0.9475 -7.5651 9.0082)" class="st0" cx="23.6" cy="27.5" rx="1.9" ry="5.5"/>
</g>
</svg>
